src/testbench/boruss_cpu_full_tb.vcd
$date
	Thu Nov 13 06:44:14 2025
$end
$version
	ModelSim Version 10.5b
$end
$timescale
	1ps
$end

$scope module boruss_cpu_full_tb $end
$var reg 1 ! clk $end
$var reg 1 " reset $end
$var wire 1 # led_out [7] $end
$var wire 1 $ led_out [6] $end
$var wire 1 % led_out [5] $end
$var wire 1 & led_out [4] $end
$var wire 1 ' led_out [3] $end
$var wire 1 ( led_out [2] $end
$var wire 1 ) led_out [1] $end
$var wire 1 * led_out [0] $end
$var integer 32 + cycle_count $end
$var reg 8 , prev_led [7:0] $end
$var integer 32 - led_changes $end

$scope module uut $end
$var wire 1 . clk $end
$var wire 1 / reset $end
$var wire 1 0 pc [7] $end
$var wire 1 1 pc [6] $end
$var wire 1 2 pc [5] $end
$var wire 1 3 pc [4] $end
$var wire 1 4 pc [3] $end
$var wire 1 5 pc [2] $end
$var wire 1 6 pc [1] $end
$var wire 1 7 pc [0] $end
$var wire 1 8 instruction_addr [7] $end
$var wire 1 9 instruction_addr [6] $end
$var wire 1 : instruction_addr [5] $end
$var wire 1 ; instruction_addr [4] $end
$var wire 1 < instruction_addr [3] $end
$var wire 1 = instruction_addr [2] $end
$var wire 1 > instruction_addr [1] $end
$var wire 1 ? instruction_addr [0] $end
$var wire 1 @ cpu_state [2] $end
$var wire 1 A cpu_state [1] $end
$var wire 1 B cpu_state [0] $end
$var wire 1 C debug_reg_a [7] $end
$var wire 1 D debug_reg_a [6] $end
$var wire 1 E debug_reg_a [5] $end
$var wire 1 F debug_reg_a [4] $end
$var wire 1 G debug_reg_a [3] $end
$var wire 1 H debug_reg_a [2] $end
$var wire 1 I debug_reg_a [1] $end
$var wire 1 J debug_reg_a [0] $end
$var wire 1 K debug_reg_b [7] $end
$var wire 1 L debug_reg_b [6] $end
$var wire 1 M debug_reg_b [5] $end
$var wire 1 N debug_reg_b [4] $end
$var wire 1 O debug_reg_b [3] $end
$var wire 1 P debug_reg_b [2] $end
$var wire 1 Q debug_reg_b [1] $end
$var wire 1 R debug_reg_b [0] $end
$var wire 1 S debug_reg_c [7] $end
$var wire 1 T debug_reg_c [6] $end
$var wire 1 U debug_reg_c [5] $end
$var wire 1 V debug_reg_c [4] $end
$var wire 1 W debug_reg_c [3] $end
$var wire 1 X debug_reg_c [2] $end
$var wire 1 Y debug_reg_c [1] $end
$var wire 1 Z debug_reg_c [0] $end
$var wire 1 [ debug_reg_d [7] $end
$var wire 1 \ debug_reg_d [6] $end
$var wire 1 ] debug_reg_d [5] $end
$var wire 1 ^ debug_reg_d [4] $end
$var wire 1 _ debug_reg_d [3] $end
$var wire 1 ` debug_reg_d [2] $end
$var wire 1 a debug_reg_d [1] $end
$var wire 1 b debug_reg_d [0] $end
$var wire 1 # led_out [7] $end
$var wire 1 $ led_out [6] $end
$var wire 1 % led_out [5] $end
$var wire 1 & led_out [4] $end
$var wire 1 ' led_out [3] $end
$var wire 1 ( led_out [2] $end
$var wire 1 ) led_out [1] $end
$var wire 1 * led_out [0] $end
$var reg 26 c clk_divider [25:0] $end
$var reg 1 d slow_clk $end
$var reg 8 e reg_a [7:0] $end
$var reg 8 f reg_b [7:0] $end
$var reg 8 g reg_c [7:0] $end
$var reg 8 h reg_d [7:0] $end
$var wire 1 i instruction_data [7] $end
$var wire 1 j instruction_data [6] $end
$var wire 1 k instruction_data [5] $end
$var wire 1 l instruction_data [4] $end
$var wire 1 m instruction_data [3] $end
$var wire 1 n instruction_data [2] $end
$var wire 1 o instruction_data [1] $end
$var wire 1 p instruction_data [0] $end
$var wire 1 q memory_data_out [7] $end
$var wire 1 r memory_data_out [6] $end
$var wire 1 s memory_data_out [5] $end
$var wire 1 t memory_data_out [4] $end
$var wire 1 u memory_data_out [3] $end
$var wire 1 v memory_data_out [2] $end
$var wire 1 w memory_data_out [1] $end
$var wire 1 x memory_data_out [0] $end
$var reg 8 y memory_addr [7:0] $end
$var reg 8 z memory_data_in [7:0] $end
$var reg 1 { memory_write_enable $end
$var reg 1 | memory_read_enable $end
$var reg 1 } memory_map_select $end
$var wire 1 ~ fsm_pc [7] $end
$var wire 1 !! fsm_pc [6] $end
$var wire 1 "! fsm_pc [5] $end
$var wire 1 #! fsm_pc [4] $end
$var wire 1 $! fsm_pc [3] $end
$var wire 1 %! fsm_pc [2] $end
$var wire 1 &! fsm_pc [1] $end
$var wire 1 '! fsm_pc [0] $end
$var wire 1 (! fsm_instruction_addr [7] $end
$var wire 1 )! fsm_instruction_addr [6] $end
$var wire 1 *! fsm_instruction_addr [5] $end
$var wire 1 +! fsm_instruction_addr [4] $end
$var wire 1 ,! fsm_instruction_addr [3] $end
$var wire 1 -! fsm_instruction_addr [2] $end
$var wire 1 .! fsm_instruction_addr [1] $end
$var wire 1 /! fsm_instruction_addr [0] $end
$var wire 1 0! current_instruction [7] $end
$var wire 1 1! current_instruction [6] $end
$var wire 1 2! current_instruction [5] $end
$var wire 1 3! current_instruction [4] $end
$var wire 1 4! current_instruction [3] $end
$var wire 1 5! current_instruction [2] $end
$var wire 1 6! current_instruction [1] $end
$var wire 1 7! current_instruction [0] $end
$var wire 1 8! opcode [6] $end
$var wire 1 9! opcode [5] $end
$var wire 1 :! opcode [4] $end
$var wire 1 ;! opcode [3] $end
$var wire 1 <! opcode [2] $end
$var wire 1 =! opcode [1] $end
$var wire 1 >! opcode [0] $end
$var wire 1 ?! src_reg [3] $end
$var wire 1 @! src_reg [2] $end
$var wire 1 A! src_reg [1] $end
$var wire 1 B! src_reg [0] $end
$var wire 1 C! dest_reg [3] $end
$var wire 1 D! dest_reg [2] $end
$var wire 1 E! dest_reg [1] $end
$var wire 1 F! dest_reg [0] $end
$var wire 1 G! execute_jump $end
$var wire 1 H! update_registers $end
$var wire 1 I! update_flags $end
$var wire 1 J! current_state [2] $end
$var wire 1 K! current_state [1] $end
$var wire 1 L! current_state [0] $end
$var wire 1 M! immediate_value [7] $end
$var wire 1 N! immediate_value [6] $end
$var wire 1 O! immediate_value [5] $end
$var wire 1 P! immediate_value [4] $end
$var wire 1 Q! immediate_value [3] $end
$var wire 1 R! immediate_value [2] $end
$var wire 1 S! immediate_value [1] $end
$var wire 1 T! immediate_value [0] $end
$var wire 1 U! is_immediate $end
$var reg 8 V! alu_operand_a [7:0] $end
$var reg 8 W! alu_operand_b [7:0] $end
$var reg 8 X! alu_operation [7:0] $end
$var wire 1 Y! alu_result [7] $end
$var wire 1 Z! alu_result [6] $end
$var wire 1 [! alu_result [5] $end
$var wire 1 \! alu_result [4] $end
$var wire 1 ]! alu_result [3] $end
$var wire 1 ^! alu_result [2] $end
$var wire 1 _! alu_result [1] $end
$var wire 1 `! alu_result [0] $end
$var wire 1 a! alu_zero_flag $end
$var wire 1 b! alu_carry_flag $end
$var wire 1 c! alu_negative_flag $end

$scope module memory_ctrl $end
$var wire 1 d! clk $end
$var wire 1 / reset $end
$var wire 1 (! instruction_address [7] $end
$var wire 1 )! instruction_address [6] $end
$var wire 1 *! instruction_address [5] $end
$var wire 1 +! instruction_address [4] $end
$var wire 1 ,! instruction_address [3] $end
$var wire 1 -! instruction_address [2] $end
$var wire 1 .! instruction_address [1] $end
$var wire 1 /! instruction_address [0] $end
$var wire 1 i instruction_data [7] $end
$var wire 1 j instruction_data [6] $end
$var wire 1 k instruction_data [5] $end
$var wire 1 l instruction_data [4] $end
$var wire 1 m instruction_data [3] $end
$var wire 1 n instruction_data [2] $end
$var wire 1 o instruction_data [1] $end
$var wire 1 p instruction_data [0] $end
$var wire 1 e! data_address [7] $end
$var wire 1 f! data_address [6] $end
$var wire 1 g! data_address [5] $end
$var wire 1 h! data_address [4] $end
$var wire 1 i! data_address [3] $end
$var wire 1 j! data_address [2] $end
$var wire 1 k! data_address [1] $end
$var wire 1 l! data_address [0] $end
$var wire 1 m! data_in [7] $end
$var wire 1 n! data_in [6] $end
$var wire 1 o! data_in [5] $end
$var wire 1 p! data_in [4] $end
$var wire 1 q! data_in [3] $end
$var wire 1 r! data_in [2] $end
$var wire 1 s! data_in [1] $end
$var wire 1 t! data_in [0] $end
$var wire 1 u! data_write_enable $end
$var wire 1 v! data_read_enable $end
$var wire 1 q data_out [7] $end
$var wire 1 r data_out [6] $end
$var wire 1 s data_out [5] $end
$var wire 1 t data_out [4] $end
$var wire 1 u data_out [3] $end
$var wire 1 v data_out [2] $end
$var wire 1 w data_out [1] $end
$var wire 1 x data_out [0] $end
$var wire 1 w! memory_map_select $end
$var wire 1 x! rom_data_out [7] $end
$var wire 1 y! rom_data_out [6] $end
$var wire 1 z! rom_data_out [5] $end
$var wire 1 {! rom_data_out [4] $end
$var wire 1 |! rom_data_out [3] $end
$var wire 1 }! rom_data_out [2] $end
$var wire 1 ~! rom_data_out [1] $end
$var wire 1 !" rom_data_out [0] $end
$var wire 1 "" ram_data_out [7] $end
$var wire 1 #" ram_data_out [6] $end
$var wire 1 $" ram_data_out [5] $end
$var wire 1 %" ram_data_out [4] $end
$var wire 1 &" ram_data_out [3] $end
$var wire 1 '" ram_data_out [2] $end
$var wire 1 (" ram_data_out [1] $end
$var wire 1 )" ram_data_out [0] $end
$var reg 1 *" ram_write_enable $end
$var reg 1 +" ram_read_enable $end

$scope module rom_inst $end
$var wire 1 (! address [7] $end
$var wire 1 )! address [6] $end
$var wire 1 *! address [5] $end
$var wire 1 +! address [4] $end
$var wire 1 ,! address [3] $end
$var wire 1 -! address [2] $end
$var wire 1 .! address [1] $end
$var wire 1 /! address [0] $end
$var reg 8 ," data_out [7:0] $end
$var integer 32 -" i $end
$upscope $end

$scope module ram_inst $end
$var wire 1 d! clk $end
$var wire 1 / reset $end
$var wire 1 e! address [7] $end
$var wire 1 f! address [6] $end
$var wire 1 g! address [5] $end
$var wire 1 h! address [4] $end
$var wire 1 i! address [3] $end
$var wire 1 j! address [2] $end
$var wire 1 k! address [1] $end
$var wire 1 l! address [0] $end
$var wire 1 m! data_in [7] $end
$var wire 1 n! data_in [6] $end
$var wire 1 o! data_in [5] $end
$var wire 1 p! data_in [4] $end
$var wire 1 q! data_in [3] $end
$var wire 1 r! data_in [2] $end
$var wire 1 s! data_in [1] $end
$var wire 1 t! data_in [0] $end
$var wire 1 ." write_enable $end
$var wire 1 /" read_enable $end
$var reg 8 0" data_out [7:0] $end
$var integer 32 1" i $end
$upscope $end
$upscope $end

$scope module fsm_inst $end
$var parameter 3 2" FETCH $end
$var parameter 3 3" DECODE $end
$var parameter 3 4" EXECUTE $end
$var parameter 3 5" WRITEBACK $end
$var parameter 3 6" FETCH_IMM $end
$var parameter 3 7" HALT $end
$var wire 1 8" clk $end
$var wire 1 / reset $end
$var wire 1 i instruction_data [7] $end
$var wire 1 j instruction_data [6] $end
$var wire 1 k instruction_data [5] $end
$var wire 1 l instruction_data [4] $end
$var wire 1 m instruction_data [3] $end
$var wire 1 n instruction_data [2] $end
$var wire 1 o instruction_data [1] $end
$var wire 1 p instruction_data [0] $end
$var wire 1 a! alu_zero_flag $end
$var wire 1 b! alu_carry_flag $end
$var wire 1 c! alu_negative_flag $end
$var wire 1 Y! alu_result [7] $end
$var wire 1 Z! alu_result [6] $end
$var wire 1 [! alu_result [5] $end
$var wire 1 \! alu_result [4] $end
$var wire 1 ]! alu_result [3] $end
$var wire 1 ^! alu_result [2] $end
$var wire 1 _! alu_result [1] $end
$var wire 1 `! alu_result [0] $end
$var reg 3 9" current_state [2:0] $end
$var reg 8 :" pc [7:0] $end
$var reg 8 ;" instruction_addr [7:0] $end
$var reg 8 <" current_instruction [7:0] $end
$var reg 7 =" opcode [6:0] $end
$var reg 4 >" dest_reg [3:0] $end
$var reg 4 ?" src_reg [3:0] $end
$var reg 1 @" execute_jump $end
$var reg 1 A" update_registers $end
$var reg 1 B" update_flags $end
$var reg 8 C" immediate_value_out [7:0] $end
$var reg 1 D" is_immediate_out $end
$var reg 3 E" next_state [2:0] $end
$var reg 8 F" next_pc [7:0] $end
$var reg 8 G" immediate_value [7:0] $end
$var reg 1 H" is_immediate $end
$var reg 1 I" zero_flag $end
$var reg 1 J" carry_flag $end
$var reg 1 K" negative_flag $end
$upscope $end

$scope module alu_inst $end
$var wire 1 L" operand_a [7] $end
$var wire 1 M" operand_a [6] $end
$var wire 1 N" operand_a [5] $end
$var wire 1 O" operand_a [4] $end
$var wire 1 P" operand_a [3] $end
$var wire 1 Q" operand_a [2] $end
$var wire 1 R" operand_a [1] $end
$var wire 1 S" operand_a [0] $end
$var wire 1 T" operand_b [7] $end
$var wire 1 U" operand_b [6] $end
$var wire 1 V" operand_b [5] $end
$var wire 1 W" operand_b [4] $end
$var wire 1 X" operand_b [3] $end
$var wire 1 Y" operand_b [2] $end
$var wire 1 Z" operand_b [1] $end
$var wire 1 [" operand_b [0] $end
$var wire 1 \" operation_code [7] $end
$var wire 1 ]" operation_code [6] $end
$var wire 1 ^" operation_code [5] $end
$var wire 1 _" operation_code [4] $end
$var wire 1 `" operation_code [3] $end
$var wire 1 a" operation_code [2] $end
$var wire 1 b" operation_code [1] $end
$var wire 1 c" operation_code [0] $end
$var reg 8 d" result [7:0] $end
$var reg 1 e" zero_flag $end
$var reg 1 f" carry_flag $end
$var reg 1 g" negative_flag $end
$upscope $end
$upscope $end
$upscope $end
$enddefinitions $end
#0
$dumpvars
0!
0"
b0 ,
bx c
xd
b0 e
b0 f
b0 g
b0 h
b0 y
b0 z
0{
0|
0}
b0 V!
b0 W!
b0 X!
0*"
0+"
b10000000 ,"
bx 0"
b0 9"
b0 :"
b0 ;"
b0 <"
b0 ="
b0 >"
b0 ?"
0@"
0A"
0B"
b0 C"
0D"
b1 E"
b0 F"
b0 G"
0H"
0I"
0J"
0K"
b0 d"
1e"
0f"
0g"
b0 2"
b1 3"
b10 4"
b11 5"
b100 6"
b101 7"
b0 +
b0 -
b100000000 -"
bx 1"
0*
0)
0(
0'
0&
0%
0$
0#
0p
0o
0n
0m
0l
0k
0j
1i
zx
zw
zv
zu
zt
zs
zr
zq
0'!
0&!
0%!
0$!
0#!
0"!
0!!
0~
0/!
0.!
0-!
0,!
0+!
0*!
0)!
0(!
07!
06!
05!
04!
03!
02!
01!
00!
0>!
0=!
0<!
0;!
0:!
09!
08!
0B!
0A!
0@!
0?!
0F!
0E!
0D!
0C!
0G!
0H!
0I!
0L!
0K!
0J!
0T!
0S!
0R!
0Q!
0P!
0O!
0N!
0M!
0U!
0`!
0_!
0^!
0]!
0\!
0[!
0Z!
0Y!
1a!
0b!
0c!
z!"
z~!
z}!
z|!
z{!
zz!
zy!
zx!
x)"
x("
x'"
x&"
x%"
x$"
x#"
x""
0/
0.
07
06
05
04
03
02
01
00
0?
0>
0=
0<
0;
0:
09
08
0B
0A
0@
0J
0I
0H
0G
0F
0E
0D
0C
0R
0Q
0P
0O
0N
0M
0L
0K
0Z
0Y
0X
0W
0V
0U
0T
0S
0b
0a
0`
0_
0^
0]
0\
0[
0c"
0b"
0a"
0`"
0_"
0^"
0]"
0\"
0["
0Z"
0Y"
0X"
0W"
0V"
0U"
0T"
0S"
0R"
0Q"
0P"
0O"
0N"
0M"
0L"
x8"
0w!
0v!
0u!
0t!
0s!
0r!
0q!
0p!
0o!
0n!
0m!
0l!
0k!
0j!
0i!
0h!
0g!
0f!
0e!
xd!
0/"
0."
$end
#10000
1!
1.
#20000
0!
0.
#25000
1"
1/
b0 1"
b1 1"
b10 1"
b11 1"
b100 1"
b101 1"
b110 1"
b111 1"
b1000 1"
b1001 1"
b1010 1"
b1011 1"
b1100 1"
b1101 1"
b1110 1"
b1111 1"
b10000 1"
b10001 1"
b10010 1"
b10011 1"
b10100 1"
b10101 1"
b10110 1"
b10111 1"
b11000 1"
b11001 1"
b11010 1"
b11011 1"
b11100 1"
b11101 1"
b11110 1"
b11111 1"
b100000 1"
b100001 1"
b100010 1"
b100011 1"
b100100 1"
b100101 1"
b100110 1"
b100111 1"
b101000 1"
b101001 1"
b101010 1"
b101011 1"
b101100 1"
b101101 1"
b101110 1"
b101111 1"
b110000 1"
b110001 1"
b110010 1"
b110011 1"
b110100 1"
b110101 1"
b110110 1"
b110111 1"
b111000 1"
b111001 1"
b111010 1"
b111011 1"
b111100 1"
b111101 1"
b111110 1"
b111111 1"
b1000000 1"
b1000001 1"
b1000010 1"
b1000011 1"
b1000100 1"
b1000101 1"
b1000110 1"
b1000111 1"
b1001000 1"
b1001001 1"
b1001010 1"
b1001011 1"
b1001100 1"
b1001101 1"
b1001110 1"
b1001111 1"
b1010000 1"
b1010001 1"
b1010010 1"
b1010011 1"
b1010100 1"
b1010101 1"
b1010110 1"
b1010111 1"
b1011000 1"
b1011001 1"
b1011010 1"
b1011011 1"
b1011100 1"
b1011101 1"
b1011110 1"
b1011111 1"
b1100000 1"
b1100001 1"
b1100010 1"
b1100011 1"
b1100100 1"
b1100101 1"
b1100110 1"
b1100111 1"
b1101000 1"
b1101001 1"
b1101010 1"
b1101011 1"
b1101100 1"
b1101101 1"
b1101110 1"
b1101111 1"
b1110000 1"
b1110001 1"
b1110010 1"
b1110011 1"
b1110100 1"
b1110101 1"
b1110110 1"
b1110111 1"
b1111000 1"
b1111001 1"
b1111010 1"
b1111011 1"
b1111100 1"
b1111101 1"
b1111110 1"
b1111111 1"
b10000000 1"
b10000001 1"
b10000010 1"
b10000011 1"
b10000100 1"
b10000101 1"
b10000110 1"
b10000111 1"
b10001000 1"
b10001001 1"
b10001010 1"
b10001011 1"
b10001100 1"
b10001101 1"
b10001110 1"
b10001111 1"
b10010000 1"
b10010001 1"
b10010010 1"
b10010011 1"
b10010100 1"
b10010101 1"
b10010110 1"
b10010111 1"
b10011000 1"
b10011001 1"
b10011010 1"
b10011011 1"
b10011100 1"
b10011101 1"
b10011110 1"
b10011111 1"
b10100000 1"
b10100001 1"
b10100010 1"
b10100011 1"
b10100100 1"
b10100101 1"
b10100110 1"
b10100111 1"
b10101000 1"
b10101001 1"
b10101010 1"
b10101011 1"
b10101100 1"
b10101101 1"
b10101110 1"
b10101111 1"
b10110000 1"
b10110001 1"
b10110010 1"
b10110011 1"
b10110100 1"
b10110101 1"
b10110110 1"
b10110111 1"
b10111000 1"
b10111001 1"
b10111010 1"
b10111011 1"
b10111100 1"
b10111101 1"
b10111110 1"
b10111111 1"
b11000000 1"
b11000001 1"
b11000010 1"
b11000011 1"
b11000100 1"
b11000101 1"
b11000110 1"
b11000111 1"
b11001000 1"
b11001001 1"
b11001010 1"
b11001011 1"
b11001100 1"
b11001101 1"
b11001110 1"
b11001111 1"
b11010000 1"
b11010001 1"
b11010010 1"
b11010011 1"
b11010100 1"
b11010101 1"
b11010110 1"
b11010111 1"
b11011000 1"
b11011001 1"
b11011010 1"
b11011011 1"
b11011100 1"
b11011101 1"
b11011110 1"
b11011111 1"
b11100000 1"
b11100001 1"
b11100010 1"
b11100011 1"
b11100100 1"
b11100101 1"
b11100110 1"
b11100111 1"
b11101000 1"
b11101001 1"
b11101010 1"
b11101011 1"
b11101100 1"
b11101101 1"
b11101110 1"
b11101111 1"
b11110000 1"
b11110001 1"
b11110010 1"
b11110011 1"
b11110100 1"
b11110101 1"
b11110110 1"
b11110111 1"
b11111000 1"
b11111001 1"
b11111010 1"
b11111011 1"
b11111100 1"
b11111101 1"
b11111110 1"
b11111111 1"
b100000000 1"
b0 0"
0)"
0("
0'"
0&"
0%"
0$"
0#"
0""
#30000
1!
1.
#40000
0!
0.
#50000
1!
1.
#60000
0!
0.
#70000
1!
1.
b1 +
#80000
0!
0.
#90000
1!
1.
b10 +
#100000
0!
0.
#110000
1!
1.
b11 +
#120000
0!
0.
#130000
1!
1.
b100 +
#140000
0!
0.
#150000
1!
1.
b101 +
#160000
0!
0.
#170000
1!
1.
b110 +
#180000
0!
0.
#190000
1!
1.
b111 +
#200000
0!
0.
#210000
1!
1.
b1000 +
#220000
0!
0.
#230000
1!
1.
b1001 +
#240000
0!
0.
#250000
1!
1.
b1010 +
#260000
0!
0.
#270000
1!
1.
b1011 +
#280000
0!
0.
#290000
1!
1.
b1100 +
#300000
0!
0.
#310000
1!
1.
b1101 +
#320000
0!
0.
#330000
1!
1.
b1110 +
#340000
0!
0.
#350000
1!
1.
b1111 +
#360000
0!
0.
#370000
1!
1.
b10000 +
#380000
0!
0.
#390000
1!
1.
b10001 +
#400000
0!
0.
#410000
1!
1.
b10010 +
#420000
0!
0.
#430000
1!
1.
b10011 +
#440000
0!
0.
#450000
1!
1.
b10100 +
#460000
0!
0.
#470000
1!
1.
b10101 +
#480000
0!
0.
#490000
1!
1.
b10110 +
#500000
0!
0.
#510000
1!
1.
b10111 +
#520000
0!
0.
#530000
1!
1.
b11000 +
#540000
0!
0.
#550000
1!
1.
b11001 +
#560000
0!
0.
#570000
1!
1.
b11010 +
#580000
0!
0.
#590000
1!
1.
b11011 +
#600000
0!
0.
#610000
1!
1.
b11100 +
#620000
0!
0.
#630000
1!
1.
b11101 +
#640000
0!
0.
#650000
1!
1.
b11110 +
#660000
0!
0.
#670000
1!
1.
b11111 +
#680000
0!
0.
#690000
1!
1.
b100000 +
#700000
0!
0.
#710000
1!
1.
b100001 +
#720000
0!
0.
#730000
1!
1.
b100010 +
#740000
0!
0.
#750000
1!
1.
b100011 +
#760000
0!
0.
#770000
1!
1.
b100100 +
#780000
0!
0.
#790000
1!
1.
b100101 +
#800000
0!
0.
#810000
1!
1.
b100110 +
#820000
0!
0.
#830000
1!
1.
b100111 +
#840000
0!
0.
#850000
1!
1.
b101000 +
#860000
0!
0.
#870000
1!
1.
b101001 +
#880000
0!
0.
#890000
1!
1.
b101010 +
#900000
0!
0.
#910000
1!
1.
b101011 +
#920000
0!
0.
#930000
1!
1.
b101100 +
#940000
0!
0.
#950000
1!
1.
b101101 +
#960000
0!
0.
#970000
1!
1.
b101110 +
#980000
0!
0.
#990000
1!
1.
b101111 +
#1000000
0!
0.
#1010000
1!
1.
b110000 +
#1020000
0!
0.
#1030000
1!
1.
b110001 +
#1040000
0!
0.
#1050000
1!
1.
b110010 +
#1060000
0!
0.
#1070000
1!
1.
b110011 +
#1080000
0!
0.
#1090000
1!
1.
b110100 +
#1100000
0!
0.
#1110000
1!
1.
b110101 +
#1120000
0!
0.
#1130000
1!
1.
b110110 +
#1140000
0!
0.
#1150000
1!
1.
b110111 +
#1160000
0!
0.
#1170000
1!
1.
b111000 +
#1180000
0!
0.
#1190000
1!
1.
b111001 +
#1200000
0!
0.
#1210000
1!
1.
b111010 +
#1220000
0!
0.
#1230000
1!
1.
b111011 +
#1240000
0!
0.
#1250000
1!
1.
b111100 +
#1260000
0!
0.
#1270000
1!
1.
b111101 +
#1280000
0!
0.
#1290000
1!
1.
b111110 +
#1300000
0!
0.
#1310000
1!
1.
b111111 +
#1320000
0!
0.
#1330000
1!
1.
b1000000 +
#1340000
0!
0.
#1350000
1!
1.
b1000001 +
#1360000
0!
0.
#1370000
1!
1.
b1000010 +
#1380000
0!
0.
#1390000
1!
1.
b1000011 +
#1400000
0!
0.
#1410000
1!
1.
b1000100 +
#1420000
0!
0.
#1430000
1!
1.
b1000101 +
#1440000
0!
0.
#1450000
1!
1.
b1000110 +
#1460000
0!
0.
#1470000
1!
1.
b1000111 +
#1480000
0!
0.
#1490000
1!
1.
b1001000 +
#1500000
0!
0.
#1510000
1!
1.
b1001001 +
#1520000
0!
0.
#1530000
1!
1.
b1001010 +
#1540000
0!
0.
#1550000
1!
1.
b1001011 +
#1560000
0!
0.
#1570000
1!
1.
b1001100 +
#1580000
0!
0.
#1590000
1!
1.
b1001101 +
#1600000
0!
0.
#1610000
1!
1.
b1001110 +
#1620000
0!
0.
#1630000
1!
1.
b1001111 +
#1640000
0!
0.
#1650000
1!
1.
b1010000 +
#1660000
0!
0.
#1670000
1!
1.
b1010001 +
#1680000
0!
0.
#1690000
1!
1.
b1010010 +
#1700000
0!
0.
#1710000
1!
1.
b1010011 +
#1720000
0!
0.
#1730000
1!
1.
b1010100 +
#1740000
0!
0.
#1750000
1!
1.
b1010101 +
#1760000
0!
0.
#1770000
1!
1.
b1010110 +
#1780000
0!
0.
#1790000
1!
1.
b1010111 +
#1800000
0!
0.
#1810000
1!
1.
b1011000 +
#1820000
0!
0.
#1830000
1!
1.
b1011001 +
#1840000
0!
0.
#1850000
1!
1.
b1011010 +
#1860000
0!
0.
#1870000
1!
1.
b1011011 +
#1880000
0!
0.
#1890000
1!
1.
b1011100 +
#1900000
0!
0.
#1910000
1!
1.
b1011101 +
#1920000
0!
0.
#1930000
1!
1.
b1011110 +
#1940000
0!
0.
#1950000
1!
1.
b1011111 +
#1960000
0!
0.
#1970000
1!
1.
b1100000 +
#1980000
0!
0.
#1990000
1!
1.
b1100001 +
#2000000
0!
0.
#2010000
1!
1.
b1100010 +
#2020000
0!
0.
#2030000
1!
1.
b1100011 +
#2040000
0!
0.
#2050000
1!
1.
b1100100 +
#2060000
0!
0.
#2070000
1!
1.
b1100101 +
#2080000
0!
0.
#2090000
1!
1.
b1100110 +
#2100000
0!
0.
#2110000
1!
1.
b1100111 +
#2120000
0!
0.
#2130000
1!
1.
b1101000 +
#2140000
0!
0.
#2150000
1!
1.
b1101001 +
#2160000
0!
0.
#2170000
1!
1.
b1101010 +
#2180000
0!
0.
#2190000
1!
1.
b1101011 +
#2200000
0!
0.
#2210000
1!
1.
b1101100 +
#2220000
0!
0.
#2230000
1!
1.
b1101101 +
#2240000
0!
0.
#2250000
1!
1.
b1101110 +
#2260000
0!
0.
#2270000
1!
1.
b1101111 +
#2280000
0!
0.
#2290000
1!
1.
b1110000 +
#2300000
0!
0.
#2310000
1!
1.
b1110001 +
#2320000
0!
0.
#2330000
1!
1.
b1110010 +
#2340000
0!
0.
#2350000
1!
1.
b1110011 +
#2360000
0!
0.
#2370000
1!
1.
b1110100 +
#2380000
0!
0.
#2390000
1!
1.
b1110101 +
#2400000
0!
0.
#2410000
1!
1.
b1110110 +
#2420000
0!
0.
#2430000
1!
1.
b1110111 +
#2440000
0!
0.
#2450000
1!
1.
b1111000 +
#2460000
0!
0.
#2470000
1!
1.
b1111001 +
#2480000
0!
0.
#2490000
1!
1.
b1111010 +
#2500000
0!
0.
#2510000
1!
1.
b1111011 +
#2520000
0!
0.
#2530000
1!
1.
b1111100 +
#2540000
0!
0.
#2550000
1!
1.
b1111101 +
#2560000
0!
0.
#2570000
1!
1.
b1111110 +
#2580000
0!
0.
#2590000
1!
1.
b1111111 +
#2600000
0!
0.
#2610000
1!
1.
b10000000 +
#2620000
0!
0.
#2630000
1!
1.
b10000001 +
#2640000
0!
0.
#2650000
1!
1.
b10000010 +
#2660000
0!
0.
#2670000
1!
1.
b10000011 +
#2680000
0!
0.
#2690000
1!
1.
b10000100 +
#2700000
0!
0.
#2710000
1!
1.
b10000101 +
#2720000
0!
0.
#2730000
1!
1.
b10000110 +
#2740000
0!
0.
#2750000
1!
1.
b10000111 +
#2760000
0!
0.
#2770000
1!
1.
b10001000 +
#2780000
0!
0.
#2790000
1!
1.
b10001001 +
#2800000
0!
0.
#2810000
1!
1.
b10001010 +
#2820000
0!
0.
#2830000
1!
1.
b10001011 +
#2840000
0!
0.
#2850000
1!
1.
b10001100 +
#2860000
0!
0.
#2870000
1!
1.
b10001101 +
#2880000
0!
0.
#2890000
1!
1.
b10001110 +
#2900000
0!
0.
#2910000
1!
1.
b10001111 +
#2920000
0!
0.
#2930000
1!
1.
b10010000 +
#2940000
0!
0.
#2950000
1!
1.
b10010001 +
#2960000
0!
0.
#2970000
1!
1.
b10010010 +
#2980000
0!
0.
#2990000
1!
1.
b10010011 +
#3000000
0!
0.
#3010000
1!
1.
b10010100 +
#3020000
0!
0.
#3030000
1!
1.
b10010101 +
#3040000
0!
0.
#3050000
1!
1.
b10010110 +
#3060000
0!
0.
#3070000
1!
1.
b10010111 +
#3080000
0!
0.
#3090000
1!
1.
b10011000 +
#3100000
0!
0.
#3110000
1!
1.
b10011001 +
#3120000
0!
0.
#3130000
1!
1.
b10011010 +
#3140000
0!
0.
#3150000
1!
1.
b10011011 +
#3160000
0!
0.
#3170000
1!
1.
b10011100 +
#3180000
0!
0.
#3190000
1!
1.
b10011101 +
#3200000
0!
0.
#3210000
1!
1.
b10011110 +
#3220000
0!
0.
#3230000
1!
1.
b10011111 +
#3240000
0!
0.
#3250000
1!
1.
b10100000 +
#3260000
0!
0.
#3270000
1!
1.
b10100001 +
#3280000
0!
0.
#3290000
1!
1.
b10100010 +
#3300000
0!
0.
#3310000
1!
1.
b10100011 +
#3320000
0!
0.
#3330000
1!
1.
b10100100 +
#3340000
0!
0.
#3350000
1!
1.
b10100101 +
#3360000
0!
0.
#3370000
1!
1.
b10100110 +
#3380000
0!
0.
#3390000
1!
1.
b10100111 +
#3400000
0!
0.
#3410000
1!
1.
b10101000 +
#3420000
0!
0.
#3430000
1!
1.
b10101001 +
#3440000
0!
0.
#3450000
1!
1.
b10101010 +
#3460000
0!
0.
#3470000
1!
1.
b10101011 +
#3480000
0!
0.
#3490000
1!
1.
b10101100 +
#3500000
0!
0.
#3510000
1!
1.
b10101101 +
#3520000
0!
0.
#3530000
1!
1.
b10101110 +
#3540000
0!
0.
#3550000
1!
1.
b10101111 +
#3560000
0!
0.
#3570000
1!
1.
b10110000 +
#3580000
0!
0.
#3590000
1!
1.
b10110001 +
#3600000
0!
0.
#3610000
1!
1.
b10110010 +
#3620000
0!
0.
#3630000
1!
1.
b10110011 +
#3640000
0!
0.
#3650000
1!
1.
b10110100 +
#3660000
0!
0.
#3670000
1!
1.
b10110101 +
#3680000
0!
0.
#3690000
1!
1.
b10110110 +
#3700000
0!
0.
#3710000
1!
1.
b10110111 +
#3720000
0!
0.
#3730000
1!
1.
b10111000 +
#3740000
0!
0.
#3750000
1!
1.
b10111001 +
#3760000
0!
0.
